module myapp

go 1.21.3

require (
	github.com/eiannone/keyboard v0.0.0-20220611211555-0d226195f203 // indirect
	github.com/fatih/color v1.15.0 // indirect
	github.com/mattn/go-colorable v0.1.13 // indirect
	github.com/mattn/go-isatty v0.0.20 // indirect
	golang.org/x/sys v0.13.0 // indirect
)
